{
	"reader" : {
		"tty" : "/dev/ttyUSB0",
		"metertype": "kaifa_ma105c"
	},


	"parser" : {

	},


	"writer" : {
		"type" : "couch",
		"mongodb" : "mongodb://127.0.0.1:27017/test",
		"couch" : {
			"url" : "http://localhost:5984"
		}
	},

	"db" : {

	}

}